<?xml version="1.0" encoding="UTF-8" standalone="no"?>
<svg width="32px" height="32px" viewBox="0 0 32 32" version="1.1" xmlns="http://www.w3.org/2000/svg" xmlns:xlink="http://www.w3.org/1999/xlink">
    <!-- Generator: sketchtool 3.7.1 (28215) - http://www.bohemiancoding.com/sketch -->
    <title>AE6A2724-A1C3-4438-84CC-14AAE969470F</title>
    <desc>Created with sketchtool.</desc>
    <defs></defs>
    <g id="Page-1" stroke="none" stroke-width="1" fill="none" fill-rule="evenodd">
        <g id="icons" transform="translate(-1176.000000, -163.000000)">
            <g id="icon_close_white" transform="translate(1176.000000, 163.000000)">
                <rect id="Rectangle-92-Copy-6" fill-opacity="0" fill="#D8D8D8" x="0" y="0" width="32" height="32"></rect>
                <g id="Group-14-Copy-7" transform="translate(8.207001, 8.000000)" fill="#FFFFFF">
                    <path d="M2.27613333,0.524533333 L15.4761333,13.7245333 C15.9961333,14.2445333 15.9961333,15.0885333 15.4761333,15.6098667 C14.9548,16.1298667 14.1108,16.1298667 13.5894667,15.6098667 L0.3908,2.40986667 C-0.130533333,1.88986667 -0.130533333,1.04586667 0.3908,0.524533333 C0.9108,0.00453333333 1.7548,0.00453333333 2.27613333,0.524533333" id="Fill-1"></path>
                    <path d="M2.27546667,15.6101333 C1.75546667,16.1301333 0.911466667,16.1301333 0.390133333,15.6101333 C-0.129866667,15.0888 -0.129866667,14.2448 0.390133333,13.7234667 L13.5901333,0.5248 C14.1101333,0.00346666667 14.9541333,0.00346666667 15.4754667,0.5248 C15.9954667,1.0448 15.9954667,1.8888 15.4754667,2.41013333 L2.27546667,15.6101333 Z" id="Fill-4"></path>
                </g>
            </g>
        </g>
    </g>
</svg>