<?xml version="1.0" encoding="UTF-8" standalone="no"?>
<svg width="32px" height="32px" viewBox="0 0 32 32" version="1.1" xmlns="http://www.w3.org/2000/svg" xmlns:xlink="http://www.w3.org/1999/xlink">
    <!-- Generator: sketchtool 3.7.1 (28215) - http://www.bohemiancoding.com/sketch -->
    <title>7115A9CA-7532-48E4-8E26-732A51134FCB</title>
    <desc>Created with sketchtool.</desc>
    <defs></defs>
    <g id="Page-1" stroke="none" stroke-width="1" fill="none" fill-rule="evenodd">
        <g id="icons" transform="translate(-590.000000, -162.000000)">
            <g id="icon_print" transform="translate(590.000000, 163.000000)">
                <rect id="Rectangle-92" fill-opacity="0" fill="#D8D8D8" x="0" y="0" width="32" height="32"></rect>
                <path d="M10.3342,24.6672875 L21.0015333,24.6672875 L21.0015333,17.4406625 L10.3342,17.4406625 L10.3342,24.6672875 Z M22.3349333,10.217975 L24.85,10.217975 C25.6693333,10.217975 26.336,10.874225 26.336,11.6807563 L26.336,20.57885 C26.336,21.3860375 25.6693333,22.0422875 24.85,22.0422875 L22.3348667,22.0422875 L22.3348667,25.9797875 L9.00086667,25.9797875 L9.00086667,22.0422875 L6.486,22.0422875 C5.66666667,22.0422875 5,21.3860375 5,20.57885 L5,11.6807563 C5,10.874225 5.66666667,10.217975 6.486,10.217975 L9.00093333,10.217975 L9.00093333,5 L22.3349333,5 L22.3349333,10.217975 Z M21.0016,10.217975 L10.3342667,10.217975 L10.3342667,6.2915 L21.0016,6.2915 L21.0016,10.217975 Z M9.00086667,20.7297875 L9.00086667,16.1281625 L22.3348667,16.1281625 L22.3348667,20.7297875 L24.85,20.7297875 C24.934,20.7297875 25.0026667,20.66285 25.0026667,20.57885 L25.0026667,11.6807563 C25.0026667,11.5974125 24.934,11.530475 24.85,11.530475 L6.486,11.530475 C6.402,11.530475 6.33333333,11.5974125 6.33333333,11.6807563 L6.33333333,20.57885 C6.33333333,20.66285 6.402,20.7297875 6.486,20.7297875 L9.00086667,20.7297875 Z M21.6679333,12.8532781 L22.3346,12.8532781 C22.7026,12.8532781 23.0012667,13.1472781 23.0012667,13.5095281 C23.0012667,13.8717781 22.7026,14.1657781 22.3346,14.1657781 L21.6679333,14.1657781 C21.2999333,14.1657781 21.0012667,13.8717781 21.0012667,13.5095281 C21.0012667,13.1472781 21.2999333,12.8532781 21.6679333,12.8532781 Z" id="Fill-3" fill="#3C4C61"></path>
            </g>
        </g>
    </g>
</svg>