<?xml version="1.0" encoding="UTF-8" standalone="no"?>
<svg width="32px" height="32px" viewBox="0 0 32 32" version="1.1" xmlns="http://www.w3.org/2000/svg" xmlns:xlink="http://www.w3.org/1999/xlink">
    <!-- Generator: sketchtool 3.7.1 (28215) - http://www.bohemiancoding.com/sketch -->
    <title>8B9E8C3F-D505-472A-9579-3DA54CD8C728</title>
    <desc>Created with sketchtool.</desc>
    <defs></defs>
    <g id="Page-1" stroke="none" stroke-width="1" fill="none" fill-rule="evenodd">
        <g id="icons" transform="translate(-647.000000, -162.000000)">
            <g id="icon_download" transform="translate(647.000000, 163.000000)">
                <rect id="Rectangle-92-Copy-3" fill-opacity="0" fill="#D8D8D8" x="0" y="0" width="32" height="32"></rect>
                <path d="M15.7410652,7.22557549 L10.2255755,7.22557549 L10.2255755,21.9340813 L16.2390552,21.9340813 C16.5774485,21.9340813 16.851843,22.2084758 16.851843,22.5468691 C16.851843,22.8852623 16.5774485,23.1596568 16.2390552,23.1596568 L10.2255755,23.1596568 C9.54878902,23.1596568 9,22.6108678 9,21.9340813 L9,7.22557549 C9,6.54878902 9.54878902,6 10.2255755,6 L16.9670407,6 L21.8701426,10.9031019 L21.8429431,15.0462191 C21.8429431,15.3846123 21.5685486,15.6590068 21.2301554,15.6590068 C20.8917622,15.6590068 20.6173677,15.3846123 20.6173677,15.0462191 L20.6385569,12.1285174 L15.7410652,12.1285174 L15.7410652,7.22557549 Z M16.9674407,7.73335944 L20.1358115,10.9029419 L16.9674407,10.9029419 L16.9674407,7.73335944 Z M20.6824469,24.9892414 L20.7055259,17.5571289 C20.7055259,17.2187356 20.9799204,16.9443411 21.3183136,16.9443411 C21.6567069,16.9443411 21.9311014,17.2187356 21.9311014,17.5571289 L21.9081028,24.9633634 L23.9620208,22.9204616 C24.1332173,22.7412652 24.4164117,22.699666 24.649207,22.8796624 L24.8716026,23.102058 C25.0427991,23.2820544 25.0427991,23.5716486 24.8716026,23.750845 L21.750065,26.8443831 C21.7468651,26.848383 21.7460651,26.852383 21.7428651,26.8547829 L21.5876682,27.0171797 C21.5028699,27.1067779 21.3900722,27.151577 21.2772745,27.150777 C21.1644767,27.151577 21.0652787,27.0931781 20.9788804,27.0035799 L20.8372833,26.8275834 C20.8348833,26.8251835 20.8204836,26.8339833 20.8172837,26.8315834 L17.698146,23.6940461 C17.5269495,23.5148497 17.5677486,23.2660547 17.7389452,23.0868583 L17.9605408,22.8636627 C18.1317374,22.6852663 18.4229315,22.698066 18.5941281,22.8772625 L20.6824469,24.9892414 Z" id="Fill-8" fill="#3C4C61"></path>
            </g>
        </g>
    </g>
</svg>