<?xml version="1.0" encoding="UTF-8" standalone="no"?>
<svg width="32px" height="32px" viewBox="0 0 32 32" version="1.1" xmlns="http://www.w3.org/2000/svg" xmlns:xlink="http://www.w3.org/1999/xlink">
    <!-- Generator: sketchtool 3.7.1 (28215) - http://www.bohemiancoding.com/sketch -->
    <title>4EF67BC4-C047-43FC-BB75-D9DFA813BA2F</title>
    <desc>Created with sketchtool.</desc>
    <defs></defs>
    <g id="Page-1" stroke="none" stroke-width="1" fill="none" fill-rule="evenodd">
        <g id="icons" transform="translate(-937.000000, -163.000000)">
            <g id="icon_details" transform="translate(937.000000, 163.000000)">
                <rect id="Rectangle-92-Copy-7" fill-opacity="0" fill="#D8D8D8" x="0" y="0" width="32" height="32"></rect>
                <path d="M18.7868209,15.9940339 L13.4998938,10.7071068 C13.1093695,10.3165825 13.1093695,9.68341751 13.4998938,9.29289322 C13.8904181,8.90236893 14.5235831,8.90236893 14.9141074,9.29289322 L20.9141074,15.2928932 C20.9147305,15.2935164 20.9153527,15.2941401 20.9159739,15.2947645 C20.9173265,15.2961243 20.9186767,15.2974896 20.9200238,15.2988596 C21.3062677,15.6916492 21.3019577,16.322573 20.9111403,16.7100621 C20.9098512,16.7113401 20.9085969,16.7125777 20.9073401,16.7138112 L14.9081415,22.6130345 C14.5143497,23.0002638 13.8812071,22.9949439 13.4939778,22.6011522 C13.1067485,22.2073604 13.1120685,21.5742178 13.5058602,21.1869885 L18.7868209,15.9940339 Z" id="Path-3904-Copy-7" fill="#3C4C61"></path>
            </g>
        </g>
    </g>
</svg>