<?xml version="1.0" encoding="UTF-8" standalone="no"?>
<svg width="32px" height="32px" viewBox="0 0 32 32" version="1.1" xmlns="http://www.w3.org/2000/svg" xmlns:xlink="http://www.w3.org/1999/xlink">
    <!-- Generator: sketchtool 3.7.1 (28215) - http://www.bohemiancoding.com/sketch -->
    <title>C4CC100C-81D9-44C9-AAE4-97C815242862</title>
    <desc>Created with sketchtool.</desc>
    <defs></defs>
    <g id="Page-1" stroke="none" stroke-width="1" fill="none" fill-rule="evenodd">
        <g id="icons" transform="translate(-999.000000, -163.000000)">
            <g id="icon_dropdown" transform="translate(999.000000, 163.000000)">
                <rect id="Rectangle-92-Copy-8" fill-opacity="0" fill="#D8D8D8" x="0" y="0" width="32" height="32"></rect>
                <path d="M17.736827,17.0440282 L12.4498999,11.7571011 C12.0593756,11.3665768 12.0593756,10.7334119 12.4498999,10.3428876 C12.8404242,9.95236328 13.4735892,9.95236328 13.8641135,10.3428876 L19.8641135,16.3428876 C19.8647366,16.3435107 19.8653588,16.3441345 19.86598,16.3447589 C19.8673326,16.3461186 19.8686827,16.3474839 19.8700299,16.3488539 C20.2562738,16.7416435 20.2519638,17.3725673 19.8611464,17.7600565 C19.8598573,17.7613345 19.858603,17.762572 19.8573462,17.7638056 L13.8581476,23.6630289 C13.4643558,24.0502582 12.8312132,24.0449382 12.4439839,23.6511465 C12.0567546,23.2573548 12.0620745,22.6242121 12.4558663,22.2369829 L17.736827,17.0440282 Z" id="Path-3904-Copy-9" fill="#95A3AF" transform="translate(16.157007, 17.000000) rotate(-270.000000) translate(-16.157007, -17.000000) "></path>
            </g>
        </g>
    </g>
</svg>