<?xml version="1.0" encoding="UTF-8"?>
<svg width="353px" height="513px" viewBox="0 0 353 513" version="1.1" xmlns="http://www.w3.org/2000/svg" xmlns:xlink="http://www.w3.org/1999/xlink">
    <!-- Generator: Sketch 43.1 (39012) - http://www.bohemiancoding.com/sketch -->
    <title>008-water-drop</title>
    <desc>Created with Sketch.</desc>
    <defs></defs>
    <g id="Page-1" stroke="none" stroke-width="1" fill="none" fill-rule="evenodd">
        <g id="008-water-drop" fill-rule="nonzero" fill="#FFFFFF">
            <path d="M181.36,437.387 C122.48,437.28 74.8,389.6 74.693,330.72 C74.693,324.853 69.893,320.053 64.026,320.053 C58.159,320.053 53.359,324.853 53.359,330.72 C53.466,401.333 110.746,458.613 181.359,458.72 C187.226,458.72 192.026,453.92 192.026,448.053 C192.027,442.187 187.227,437.387 181.36,437.387 Z" id="Shape"></path>
            <path d="M183.387,3.04 C179.227,-1.013 172.614,-1.013 168.56,3.04 C161.733,9.76 0.027,169.333 0.027,332.213 C0.027,431.413 78.96,512.053 176.027,512.053 C273.094,512.053 352.027,431.413 352.027,332.213 C352.027,168.373 190.32,9.76 183.387,3.04 Z M176.027,490.72 C90.694,490.72 21.36,419.573 21.36,332.213 C21.36,197.6 144.24,59.466 176.027,25.973 C207.814,59.36 330.694,196.853 330.694,332.213 C330.693,419.573 261.253,490.72 176.027,490.72 Z" id="Shape"></path>
        </g>
    </g>
</svg>