<?xml version="1.0" encoding="UTF-8"?>
<svg width="245px" height="425px" viewBox="0 0 245 425" version="1.1" xmlns="http://www.w3.org/2000/svg" xmlns:xlink="http://www.w3.org/1999/xlink">
    <!-- Generator: Sketch 43.1 (39012) - http://www.bohemiancoding.com/sketch -->
    <title>009-jukebox</title>
    <desc>Created with Sketch.</desc>
    <defs></defs>
    <g id="Page-1" stroke="none" stroke-width="1" fill="none" fill-rule="evenodd">
        <g id="009-jukebox" fill-rule="nonzero" fill="#FFFFFF">
            <path d="M175.689,121.653 L68.917,121.653 C66.432,121.653 64.417,119.638 64.417,117.153 C64.417,85.235 90.385,59.268 122.303,59.268 C154.221,59.268 180.189,85.235 180.189,117.153 C180.189,119.639 178.174,121.653 175.689,121.653 Z M73.622,112.653 L170.983,112.653 C168.704,87.799 147.741,68.268 122.302,68.268 C96.863,68.268 75.902,87.8 73.622,112.653 Z" id="Shape"></path>
            <path d="M157.694,195.233 L86.913,195.233 C84.428,195.233 82.413,193.218 82.413,190.733 L82.413,176.481 C82.413,173.996 84.428,171.981 86.913,171.981 L157.694,171.981 C160.179,171.981 162.194,173.996 162.194,176.481 L162.194,190.733 C162.194,193.219 160.179,195.233 157.694,195.233 Z M91.413,186.233 L153.194,186.233 L153.194,180.981 L91.413,180.981 L91.413,186.233 Z" id="Shape"></path>
            <path d="M188.572,124.407 L56.036,124.407 C53.551,124.407 51.536,126.422 51.536,128.907 L51.536,164.059 C51.536,166.544 53.551,168.559 56.036,168.559 L188.572,168.559 C191.057,168.559 193.072,166.544 193.072,164.059 L193.072,128.907 C193.072,126.422 191.057,124.407 188.572,124.407 Z M126.803,133.407 L150.938,133.407 L150.938,159.559 L126.803,159.559 L126.803,133.407 Z M117.803,159.56 L93.669,159.56 L93.669,133.408 L117.803,133.408 L117.803,159.56 Z M60.536,133.407 L84.67,133.407 L84.67,159.559 L60.536,159.559 L60.536,133.407 Z M184.072,159.56 L159.938,159.56 L159.938,133.408 L184.072,133.408 L184.072,159.56 Z" id="Shape"></path>
            <g id="Group" transform="translate(47.000000, 363.000000)">
                <path d="M25.378,20.279 L4.95,20.279 C2.465,20.279 0.45,18.264 0.45,15.779 L0.45,4.853 C0.45,2.368 2.465,0.353 4.95,0.353 L25.378,0.353 C27.863,0.353 29.878,2.368 29.878,4.853 L29.878,15.779 C29.878,18.265 27.864,20.279 25.378,20.279 Z M9.451,11.279 L20.879,11.279 L20.879,9.353 L9.451,9.353 L9.451,11.279 Z" id="Shape"></path>
                <path d="M145.657,20.279 L125.229,20.279 C122.744,20.279 120.729,18.264 120.729,15.779 L120.729,4.853 C120.729,2.368 122.744,0.353 125.229,0.353 L145.657,0.353 C148.142,0.353 150.157,2.368 150.157,4.853 L150.157,15.779 C150.157,18.265 148.142,20.279 145.657,20.279 Z M129.729,11.279 L141.157,11.279 L141.157,9.353 L129.729,9.353 L129.729,11.279 Z" id="Shape"></path>
            </g>
            <path d="M239.966,164.283 C242.451,164.283 244.466,162.268 244.466,159.783 L244.466,123.68 C244.466,121.195 242.451,119.18 239.966,119.18 L237.637,119.18 C236.744,95.652 228.86,73.368 214.69,54.48 C201.571,36.992 183.444,23.427 163.111,15.709 C165.355,14.693 166.372,12.06 165.376,9.8 C164.887,8.69 164.001,7.882 162.96,7.456 L162.962,7.446 C149.977,2.505 136.298,0 122.303,0 C108.32,0 94.649,2.502 81.671,7.437 L81.674,7.444 C80.62,7.867 79.724,8.681 79.231,9.802 C78.236,12.063 79.251,14.694 81.495,15.71 C61.163,23.429 43.037,36.993 29.918,54.481 C15.748,73.37 7.863,95.653 6.971,119.181 L4.642,119.181 C2.157,119.181 0.142,121.196 0.142,123.681 L0.142,159.785 C0.142,162.27 2.157,164.285 4.642,164.285 L6.791,164.285 L6.791,313 L4.642,313 C2.157,313 0.142,315.015 0.142,317.5 L0.142,353.604 C0.142,356.089 2.157,358.104 4.642,358.104 L6.791,358.104 L6.791,420.11 C6.791,422.595 8.806,424.61 11.291,424.61 L233.316,424.61 C235.801,424.61 237.816,422.595 237.816,420.11 L237.816,358.104 L239.966,358.104 C242.451,358.104 244.466,356.089 244.466,353.604 L244.466,317.5 C244.466,315.015 242.451,313 239.966,313 L237.816,313 L237.816,164.283 L239.966,164.283 Z M228.631,119.18 L209.75,119.18 C207.795,80.778 180.996,48.826 145.138,39.133 C145.593,36.454 146.426,33.826 147.701,31.07 C149.279,27.66 151.401,24.613 153.943,22.044 C197.25,35.507 226.78,74.161 228.631,119.18 Z M200.789,312.998 L198.639,312.998 C196.154,312.998 194.139,315.013 194.139,317.498 L194.139,353.602 C194.139,356.087 196.154,358.102 198.639,358.102 L200.789,358.102 L200.789,392.806 L43.819,392.806 L43.819,358.102 L45.969,358.102 C48.454,358.102 50.469,356.087 50.469,353.602 L50.469,317.498 C50.469,315.013 48.454,312.998 45.969,312.998 L43.819,312.998 L43.819,164.283 L45.969,164.283 C48.454,164.283 50.469,162.268 50.469,159.783 L50.469,123.68 C50.469,121.195 48.454,119.18 45.969,119.18 L43.867,119.18 C46.208,77.942 80.489,45.107 122.304,45.107 C164.119,45.107 198.392,77.943 200.733,119.18 L198.639,119.18 C196.154,119.18 194.139,121.195 194.139,123.68 L194.139,159.784 C194.139,162.269 196.154,164.284 198.639,164.284 L200.789,164.284 L200.789,312.998 L200.789,312.998 Z M122.303,9 C131.979,9 141.488,10.299 150.685,12.868 C146.001,16.681 142.168,21.597 139.534,27.291 C137.996,30.614 136.944,33.903 136.338,37.236 C131.767,36.497 127.08,36.106 122.304,36.106 C117.528,36.106 112.841,36.497 108.27,37.236 C107.665,33.902 106.613,30.614 105.074,27.291 C102.439,21.597 98.607,16.682 93.924,12.87 C103.12,10.3 112.628,9 122.303,9 Z M90.662,22.044 C93.205,24.614 95.327,27.661 96.906,31.071 C98.181,33.826 99.014,36.454 99.469,39.132 C63.611,48.827 36.812,80.777 34.858,119.18 L15.976,119.18 C17.828,74.162 47.357,35.508 90.662,22.044 Z M9.141,128.18 L41.469,128.18 L41.469,137.233 L9.141,137.233 L9.141,128.18 Z M9.141,146.232 L41.469,146.232 L41.469,155.283 L9.141,155.283 L9.141,146.232 Z M34.819,164.283 L34.819,312.998 L15.79,312.998 L15.79,164.283 L34.819,164.283 Z M9.141,321.998 L41.469,321.998 L41.469,331.05 L9.141,331.05 L9.141,321.998 Z M34.819,415.607 L15.79,415.607 L15.79,358.101 L34.818,358.101 L34.818,415.607 L34.819,415.607 Z M9.141,349.102 L9.141,340.05 L41.469,340.05 L41.469,349.102 L9.141,349.102 Z M43.819,415.607 L43.819,401.805 L200.789,401.805 L200.789,415.607 L43.819,415.607 Z M228.816,415.607 L209.789,415.607 L209.789,358.101 L228.816,358.101 L228.816,415.607 Z M235.466,349.102 L203.138,349.102 L203.138,340.05 L235.466,340.05 L235.466,349.102 Z M235.466,331.05 L203.138,331.05 L203.138,321.998 L235.466,321.998 L235.466,331.05 Z M209.789,312.998 L209.789,164.283 L228.816,164.283 L228.816,312.998 L209.789,312.998 Z M235.466,155.283 L203.138,155.283 L203.138,146.232 L235.466,146.232 L235.466,155.283 Z M235.466,137.232 L203.138,137.232 L203.138,128.179 L235.466,128.179 L235.466,137.232 Z" id="Shape"></path>
            <path d="M183.439,201.363 L61.167,201.363 C58.682,201.363 56.667,203.378 56.667,205.863 L56.667,302.803 C56.667,338.994 86.111,368.439 122.303,368.439 C158.495,368.439 187.939,338.995 187.939,302.803 L187.939,205.863 C187.939,203.378 185.924,201.363 183.439,201.363 Z M156.388,274.886 L159.632,267.122 L159.632,282.54 L156.388,274.886 Z M159.632,243.778 L151.476,263.297 L141.826,240.53 L151.286,217.891 L159.501,237.272 C159.54,237.364 159.589,237.448 159.633,237.536 L159.633,243.778 L159.632,243.778 Z M113.202,309.03 L122.661,286.393 L132.311,309.159 L122.851,331.797 L113.202,309.03 Z M117.749,274.804 L108.29,297.442 L98.639,274.672 L108.099,252.035 L117.749,274.804 Z M112.951,240.422 L122.41,217.786 L132.061,240.555 L122.602,263.191 L112.951,240.422 Z M127.514,274.779 L136.973,252.143 L146.622,274.91 L137.163,297.546 L127.514,274.779 Z M136.914,228.94 L129.04,210.363 L144.677,210.363 L136.914,228.94 Z M108.039,228.833 L100.211,210.363 L115.758,210.363 L108.039,228.833 Z M103.186,240.446 L93.726,263.083 L84.974,242.435 L84.974,238.126 C85.004,238.062 85.042,238.005 85.07,237.938 L93.536,217.677 L103.186,240.446 Z M88.872,274.696 L84.974,284.025 L84.974,265.499 L88.872,274.696 Z M93.785,286.285 L103.436,309.055 L95.296,328.534 C89.782,322.749 86.1,315.207 85.195,306.84 L93.785,286.285 Z M108.348,320.645 L116.411,339.664 C111.395,338.865 106.714,337.062 102.571,334.471 L108.348,320.645 Z M137.223,320.748 L142.825,333.964 C138.822,336.61 134.284,338.503 129.409,339.446 L137.223,320.748 Z M149.992,327.81 L142.076,309.134 L151.535,286.498 L159.534,305.37 C158.947,313.972 155.442,321.782 149.992,327.81 Z M159.632,214.52 L157.87,210.364 L159.632,210.364 L159.632,214.52 Z M86.836,210.363 L84.974,214.821 L84.974,210.363 L86.836,210.363 Z M178.939,302.804 C178.939,334.033 153.533,359.44 122.303,359.44 C91.073,359.44 65.667,334.034 65.667,302.804 L65.667,210.364 L75.974,210.364 L75.974,302.804 C75.974,328.35 96.757,349.133 122.303,349.133 C147.849,349.133 168.632,328.35 168.632,302.804 L168.632,210.364 L178.939,210.364 L178.939,302.804 Z" id="Shape"></path>
        </g>
    </g>
</svg>