<?xml version="1.0" encoding="UTF-8"?>
<svg width="36px" height="32px" viewBox="0 0 36 32" version="1.1" xmlns="http://www.w3.org/2000/svg" xmlns:xlink="http://www.w3.org/1999/xlink">
    <!-- Generator: Sketch 43.1 (39012) - http://www.bohemiancoding.com/sketch -->
    <title>001-bulleted-list</title>
    <desc>Created with Sketch.</desc>
    <defs></defs>
    <g id="Page-1" stroke="none" stroke-width="1" fill="none" fill-rule="evenodd">
        <g id="001-bulleted-list" fill-rule="nonzero" fill="#FFFFFF">
            <path d="M6.583,0.833 L1.75,0.833 C0.785,0.833 0,1.618 0,2.583 L0,7.416 C0,8.381 0.785,9.166 1.75,9.166 L6.583,9.166 C7.548,9.166 8.333,8.381 8.333,7.416 L8.333,2.583 C8.333,1.618 7.548,0.833 6.583,0.833 Z M6.833,7.416 C6.833,7.554 6.721,7.666 6.583,7.666 L1.75,7.666 C1.612,7.666 1.5,7.554 1.5,7.416 L1.5,2.583 C1.5,2.445 1.612,2.333 1.75,2.333 L6.583,2.333 C6.721,2.333 6.833,2.445 6.833,2.583 L6.833,7.416 Z" id="Shape"></path>
            <path d="M34.25,0.833 L12.416,0.833 C11.451,0.833 10.666,1.618 10.666,2.583 L10.666,7.416 C10.666,8.381 11.451,9.166 12.416,9.166 L34.249,9.166 C35.214,9.166 35.999,8.381 35.999,7.416 L35.999,2.583 C36,1.618 35.215,0.833 34.25,0.833 Z M34.499,7.416 C34.499,7.554 34.388,7.666 34.249,7.666 L12.416,7.666 C12.278,7.666 12.166,7.554 12.166,7.416 L12.166,2.583 C12.166,2.445 12.278,2.333 12.416,2.333 L34.249,2.333 C34.388,2.333 34.499,2.445 34.499,2.583 L34.499,7.416 L34.499,7.416 Z" id="Shape"></path>
            <path d="M34.25,11.833 L12.416,11.833 C11.451,11.833 10.666,12.618 10.666,13.583 L10.666,18.416 C10.666,19.381 11.451,20.166 12.416,20.166 L34.249,20.166 C35.214,20.166 35.999,19.381 35.999,18.416 L35.999,13.583 C36,12.618 35.215,11.833 34.25,11.833 Z M34.499,18.416 C34.499,18.555 34.388,18.666 34.249,18.666 L12.416,18.666 C12.278,18.666 12.166,18.555 12.166,18.416 L12.166,13.583 C12.166,13.445 12.278,13.333 12.416,13.333 L34.249,13.333 C34.388,13.333 34.499,13.445 34.499,13.583 L34.499,18.416 L34.499,18.416 Z" id="Shape"></path>
            <path d="M34.25,22.833 L12.416,22.833 C11.451,22.833 10.666,23.618 10.666,24.583 L10.666,29.416 C10.666,30.381 11.451,31.166 12.416,31.166 L34.249,31.166 C35.214,31.166 35.999,30.381 35.999,29.416 L35.999,24.583 C36,23.618 35.215,22.833 34.25,22.833 Z M34.499,29.416 C34.499,29.555 34.388,29.666 34.249,29.666 L12.416,29.666 C12.278,29.666 12.166,29.555 12.166,29.416 L12.166,24.583 C12.166,24.445 12.278,24.333 12.416,24.333 L34.249,24.333 C34.388,24.333 34.499,24.445 34.499,24.583 L34.499,29.416 L34.499,29.416 Z" id="Shape"></path>
            <path d="M6.583,11.833 L1.75,11.833 C0.785,11.833 0,12.618 0,13.583 L0,18.416 C0,19.381 0.785,20.166 1.75,20.166 L6.583,20.166 C7.548,20.166 8.333,19.381 8.333,18.416 L8.333,13.583 C8.333,12.618 7.548,11.833 6.583,11.833 Z M6.833,18.416 C6.833,18.555 6.721,18.666 6.583,18.666 L1.75,18.666 C1.612,18.666 1.5,18.555 1.5,18.416 L1.5,13.583 C1.5,13.445 1.612,13.333 1.75,13.333 L6.583,13.333 C6.721,13.333 6.833,13.445 6.833,13.583 L6.833,18.416 Z" id="Shape"></path>
            <path d="M6.583,22.833 L1.75,22.833 C0.785,22.833 0,23.618 0,24.583 L0,29.416 C0,30.381 0.785,31.166 1.75,31.166 L6.583,31.166 C7.548,31.166 8.333,30.381 8.333,29.416 L8.333,24.583 C8.333,23.618 7.548,22.833 6.583,22.833 Z M6.833,29.416 C6.833,29.555 6.721,29.666 6.583,29.666 L1.75,29.666 C1.612,29.666 1.5,29.555 1.5,29.416 L1.5,24.583 C1.5,24.445 1.612,24.333 1.75,24.333 L6.583,24.333 C6.721,24.333 6.833,24.445 6.833,24.583 L6.833,29.416 Z" id="Shape"></path>
        </g>
    </g>
</svg>